{
  "key": "bitbucket-default-tasks",
  "name": "Default tasks",
  "description": "Create default tasks for pull requests raised against your repository.",
  "vendor": {
    "name": "Atlassian Labs",
    "url": "https://marketplace.atlassian.com/vendors/33202"
  },
  "baseUrl": "{{localBaseUrl}}",
  "authentication": {
    "type": "jwt"
  },
  "lifecycle": {
    "installed": "/installed",
    "uninstalled": "/uninstalled"
  },
  "modules": {
    "webhooks": [
      {
        "event": "pullrequest:created",
        "url": "/webhook"
      }
    ],
    "adminPages": [
      {
        "key": "repo-config",
        "name": {
          "value": "Default tasks"
        },
        "location": "org.bitbucket.repository.admin",
        "url": "/configure?repoId={repository.uuid}",
        "tooltip": {
          "value": "Configure the default tasks for pull requests raised against this repository"
        }
      }

    ]
  },
  "scopes": [
    "pullrequest:write"
  ],
  "contexts": [
    "account"
  ]
}